name="AccessoryFramework.apk" info_1="e8a71c3e5138520361de78048d6674b2" info_2="16e5c3459f965b0003043ed074e50744" location="priv-app/AccessoryFramework/AccessoryFramework.apk"
name="Aod.apk" info_1="e8a71c3e5138520361de78048d6674b2" info_2="16e5c3459f965b0003043ed074e50744" location="app/Aod/Aod.apk"
name="COSA.apk" info_1="e8a71c3e5138520361de78048d6674b2" info_2="16e5c3459f965b0003043ed074e50744" location="app/COSA/COSA.apk"
name="ColorfulEngine.apk" info_1="c3833dbad48a0fd077a60142e151e720" info_2="d204c659939c729c26bedd6131df6339" location="priv-app/ColorfulEngine/ColorfulEngine.apk"
name="DCS.apk" info_1="e8a71c3e5138520361de78048d6674b2" info_2="16e5c3459f965b0003043ed074e50744" location="priv-app/DCS/DCS.apk"
name="FileEncryption.apk" info_1="737bfa449bcb3eda3736a87d00cca982" info_2="65b55f10bf2d77dc8a5aa58d8d8a18d0" location="app/FileEncryption/FileEncryption.apk"
name="FileManager.apk" info_1="cf51eb2b423fff55466cb17e090aa8fe" info_2="06b5145dd8d3cf35054cc06f86b5f4d6" location="app/FileManager/FileManager.apk"
name="GamePerformanceOpt.apk" info_1="e8a71c3e5138520361de78048d6674b2" info_2="16e5c3459f965b0003043ed074e50744" location="plugin/GamePerformanceOpt/GamePerformanceOpt.apk"
name="Games.apk" info_1="e8a71c3e5138520361de78048d6674b2" info_2="16e5c3459f965b0003043ed074e50744" location="app/Games/Games.apk"
name="HeyCast.apk" info_1="e8a71c3e5138520361de78048d6674b2" info_2="16e5c3459f965b0003043ed074e50744" location="priv-app/HeyCast/HeyCast.apk"
name="HeySynergy.apk" info_1="e8a71c3e5138520361de78048d6674b2" info_2="16e5c3459f965b0003043ed074e50744" location="priv-app/HeySynergy/HeySynergy.apk"
name="LocationProxy.apk" info_1="e8a71c3e5138520361de78048d6674b2" info_2="16e5c3459f965b0003043ed074e50744" location="app/LocationProxy/LocationProxy.apk"
name="ONet.apk" info_1="e8a71c3e5138520361de78048d6674b2" info_2="16e5c3459f965b0003043ed074e50744" location="priv-app/ONet/ONet.apk"
name="OPScout.apk" info_1="e8a71c3e5138520361de78048d6674b2" info_2="16e5c3459f965b0003043ed074e50744" location="priv-app/OPScout/OPScout.apk"
name="OPShelf.apk" info_1="e8a71c3e5138520361de78048d6674b2" info_2="16e5c3459f965b0003043ed074e50744" location="priv-app/OPShelf/OPShelf.apk"
name="OPSynergy.apk" info_1="e8a71c3e5138520361de78048d6674b2" info_2="16e5c3459f965b0003043ed074e50744" location="priv-app/OPSynergy/OPSynergy.apk"
name="OPWorkLifeBalance.apk" info_1="cf51eb2b423fff55466cb17e090aa8fe" info_2="06b5145dd8d3cf35054cc06f86b5f4d6" location="app/OPWorkLifeBalance/OPWorkLifeBalance.apk"
name="Omacp.apk" info_1="e8a71c3e5138520361de78048d6674b2" info_2="16e5c3459f965b0003043ed074e50744" location="priv-app/Omacp/Omacp.apk"
name="OnePlusWizard.apk" info_1="e8a71c3e5138520361de78048d6674b2" info_2="16e5c3459f965b0003043ed074e50744" location="priv-app/OnePlusWizard/OnePlusWizard.apk"
name="OpenCapabilityService.apk" info_1="e8a71c3e5138520361de78048d6674b2" info_2="16e5c3459f965b0003043ed074e50744" location="app/OpenCapabilityService/OpenCapabilityService.apk"
name="OplusScreenRecorder.apk" info_1="e8a71c3e5138520361de78048d6674b2" info_2="16e5c3459f965b0003043ed074e50744" location="priv-app/OplusScreenRecorder/OplusScreenRecorder.apk"
name="OplusSecurityKeyboard.apk" info_1="e8a71c3e5138520361de78048d6674b2" info_2="16e5c3459f965b0003043ed074e50744" location="app/OplusSecurityKeyboard/OplusSecurityKeyboard.apk"
name="Portrait.apk" info_1="e8a71c3e5138520361de78048d6674b2" info_2="16e5c3459f965b0003043ed074e50744" location="app/Portrait/Portrait.apk"
name="RomUpdate.apk" info_1="e8a71c3e5138520361de78048d6674b2" info_2="16e5c3459f965b0003043ed074e50744" location="app/RomUpdate/RomUpdate.apk"
name="SOSHelper.apk" info_1="e8a71c3e5138520361de78048d6674b2" info_2="16e5c3459f965b0003043ed074e50744" location="priv-app/SOSHelper/SOSHelper.apk"
name="Screenshot.apk" info_1="e8a71c3e5138520361de78048d6674b2" info_2="16e5c3459f965b0003043ed074e50744" location="priv-app/Screenshot/Screenshot.apk"
name="SmartEngine.apk" info_1="e8a71c3e5138520361de78048d6674b2" info_2="16e5c3459f965b0003043ed074e50744" location="app/SmartEngine/SmartEngine.apk"
name="TeleServiceCarrierConfig.apk" info_1="e8a71c3e5138520361de78048d6674b2" info_2="16e5c3459f965b0003043ed074e50744" location="plugin/TeleServiceCarrierConfig/TeleServiceCarrierConfig.apk"
name="VariUIEngine.apk" info_1="e8a71c3e5138520361de78048d6674b2" info_2="16e5c3459f965b0003043ed074e50744" location="app/VariUIEngine/VariUIEngine.apk"
name="Wallpapers.apk" info_1="e8a71c3e5138520361de78048d6674b2" info_2="16e5c3459f965b0003043ed074e50744" location="app/Wallpapers/Wallpapers.apk"
